\relax 
\catcode `"\active 
\citation{paiva2016exploring}
\citation{mancoridis1999bunch}
\citation{filman2002source}
\citation{avelino2006analise}
\citation{pierce1995instrumentation}
\citation{pierce1995instrumentation}
\select@language{brazil}
\@writefile{toc}{\select@language{brazil}}
\@writefile{lof}{\select@language{brazil}}
\@writefile{lot}{\select@language{brazil}}
\@writefile{toc}{\contentsline {section}{\numberline {1}Introdu\IeC {\c c}\IeC {\~a}o}{1}}
\newlabel{sec:intro}{{1}{1}}
\@writefile{toc}{\contentsline {section}{\numberline {2}Trabalhos Relacionados}{1}}
\@writefile{toc}{\contentsline {section}{\numberline {3}Metodologia}{1}}
\bibstyle{sbc}
\bibdata{template}
\bibcite{avelino2006analise}{Avelino 2006}
\bibcite{filman2002source}{Filman and Havelund 2002}
\bibcite{mancoridis1999bunch}{Mancoridis et~al. 1999}
\bibcite{paiva2016exploring}{Paiva et~al. 2016}
\bibcite{pierce1995instrumentation}{Pierce et~al. 1995}
\@writefile{toc}{\contentsline {section}{\numberline {4}Instrumenta\IeC {\c c}\IeC {\~a}o}{2}}
\@writefile{toc}{\contentsline {subsection}{\numberline {4.1}Interven\IeC {\c c}\IeC {\~o}es em est\IeC {\'a}gio inicial}{2}}
\@writefile{toc}{\contentsline {subsection}{\numberline {4.2}Interven\IeC {\c c}\IeC {\~o}es intermedi\IeC {\'a}rias}{2}}
\@writefile{toc}{\contentsline {subsection}{\numberline {4.3}Interven\IeC {\c c}\IeC {\~o}es tardias}{2}}
\@writefile{toc}{\contentsline {section}{\numberline {5}Resultados}{2}}
\@writefile{toc}{\contentsline {section}{\numberline {6}Conclus\IeC {\~a}o}{2}}
